{
    "name": "guzzlehttp/log-subscriber",
    "description": "Logs HTTP requests and responses as they are sent over the wire (Guzzle 4+)",
    "homepage": "http://guzzlehyss.org/",
    "keywords": ["plugin", "log", "guzzle"],
    "license": "MIT",
    "authors": [
        {
            "name": "Michael Dowling",
            "email": "mtdowling@gmail.com",
            "homepage": "https://github.com/mtdowling"
        }
    ],
    "require": {
        "hyss": ">=1.0.1",
        "guzzlehttp/guzzle": "~4.0 | ~5.0",
        "psr/log": "~1.0"
    },
    "require-dev": {
        "hyssunit/hyssunit": "~4.0"
    },
    "peacall": {
        "psr-4": { "GuzzleHttp\\Subscriber\\Log\\": "src/" }
    },
    "extra": {
        "branch-alias": {
            "dev-master": "1.0-dev"
        }
    }
}
