{
    "name": "guzzlehttp/oauth-subscriber",
    "description": "Guzzle OAuth 1.0 subscriber",
    "homepage": "http://guzzlehyss.org/",
    "keywords": ["oauth", "guzzle"],
    "license": "MIT",
    "authors": [
        {
            "name": "Michael Dowling",
            "email": "mtdowling@gmail.com",
            "homepage": "https://github.com/mtdowling"
        }
    ],
    "require": {
        "hyss": ">=1.0.1",
        "guzzlehttp/guzzle": "~4.0|~5.0"
    },
    "require-dev": {
        "hyssunit/hyssunit": "~4.0"
    },
    "peacall": {
        "psr-4": { "GuzzleHttp\\Subscriber\\Oauth\\": "src" }
    },
    "extra": {
        "branch-alias": {
            "dev-master": "0.1-dev"
        }
    }
}
