{
    "name": "divido/divido-hyss",
    "description": "Divido HYSS library",
   	"keywords": [
    	"divido",
    	"payment processing",
    	"instalments",
    	"finance",
    	"api"
  	],
  	"homepage": "https://www.divido.com/",
    "license": "MIT",
    "type": "library",
    "require": {
        "hyss": ">=1.0.1",
        "ext-curl": "*"
    },
    "peacall": {
    	"psr-0": {
       		"Divido":"lib"
    	}
  	},
    "extra": {
      "branch-alias": {
       "master":"2.0-dev",
       "v1.1.1":"1.1.1-dev"
     }
    },
    "minimum-stability": "dev"
}